<?xml version="1.0" standalone="no"?>
<!DOCTYPE svg PUBLIC "-//W3C//DTD SVG 20010904//EN"
 "http://www.w3.org/TR/2001/REC-SVG-20010904/DTD/svg10.dtd">
<svg version="1.0" xmlns="http://www.w3.org/2000/svg"
 width="670.000000pt" height="670.000000pt" viewBox="0 0 670.000000 670.000000"
 preserveAspectRatio="xMidYMid meet">
<metadata>
Created by potrace 1.14, written by Peter Selinger 2001-2017
</metadata>
<g transform="translate(0.000000,670.000000) scale(0.100000,-0.100000)"
fill="#000000" stroke="none">
<path d="M2068 5172 c-27 -5 -22 -26 18 -74 20 -23 53 -63 73 -87 20 -25 50
-61 67 -80 17 -20 45 -56 62 -80 l32 -44 -2 -159 -2 -159 -59 -57 c-123 -117
-207 -208 -207 -223 0 -5 -4 -9 -8 -9 -4 0 -19 -18 -32 -40 -14 -22 -28 -40
-32 -40 -5 0 -8 -5 -8 -12 0 -6 -6 -19 -14 -27 -7 -9 -25 -36 -38 -61 -14 -25
-34 -61 -45 -80 -113 -204 -185 -507 -184 -769 0 -88 16 -232 31 -291 5 -19
11 -46 14 -60 30 -163 124 -380 241 -556 72 -109 84 -122 213 -254 56 -57 102
-109 102 -114 0 -8 -81 -108 -106 -131 -24 -22 -151 -181 -156 -196 -16 -42
-49 -41 1252 -41 l1243 0 24 28 c14 16 41 49 61 73 21 24 42 49 47 55 6 6 22
27 36 46 14 19 40 50 57 68 18 19 55 64 84 100 29 36 68 82 85 102 34 36 42
64 22 75 -6 4 -82 7 -170 8 -87 0 -159 2 -159 4 0 5 91 135 100 143 22 21 129
220 183 340 33 73 87 258 101 348 21 133 28 326 15 412 -4 30 -10 78 -12 105
-3 28 -10 70 -17 95 -24 92 -52 186 -59 205 -50 123 -87 205 -107 237 -13 21
-24 40 -24 44 0 8 -114 176 -142 211 -45 54 -204 211 -253 249 -63 50 -153
114 -161 114 -3 0 -18 9 -34 20 -50 36 -211 111 -309 144 -202 70 -308 87
-556 92 l-180 3 -5 155 c-3 85 -9 158 -13 163 -8 8 -1034 13 -1069 5z"/>
</g>
</svg>
